…
### Questions

``` r
instacart_aisle = 
  select(instacart, aisle) |> 
  count(aisle, name = "quantity") |> 
  arrange(desc(quantity))

instacart_aisle
```

    ## # A tibble: 134 × 2
    ##    aisle                         quantity
    ##    <chr>                            <int>
    ##  1 fresh vegetables                150609
    ##  2 fresh fruits                    150473
    ##  3 packaged vegetables fruits       78493
    ##  4 yogurt                           55240
    ##  5 packaged cheese                  41699
    ##  6 water seltzer sparkling water    36617
    ##  7 milk                             32644
    ##  8 chips pretzels                   31269
    ##  9 soy lactosefree                  26240
    ## 10 bread                            23635
    ## # ℹ 124 more rows
…
## Data cleaning

``` r
brfss_smart2010 = brfss_smart2010 |> 
  filter(Topic == "Overall Health", Response %in% c("Poor", "Fair", "Good", "Very good", "Excellent")) |> 
  mutate(Response = factor(Response, levels = c("Poor", "Fair", "Good", "Very good", "Excellent"))) |> 
  rename(State = Locationabbr, Location = Locationdesc)

brfss_smart2010
```

    ## # A tibble: 10,625 × 23
    ##     Year State Location     Class Topic Question Response Sample_Size Data_value
    ##    <int> <chr> <chr>        <chr> <chr> <chr>    <fct>          <int>      <dbl>
    ##  1  2010 AL    AL - Jeffer… Heal… Over… How is … Excelle…          94       18.9
    ##  2  2010 AL    AL - Jeffer… Heal… Over… How is … Very go…         148       30  
    ##  3  2010 AL    AL - Jeffer… Heal… Over… How is … Good             208       33.1
    ##  4  2010 AL    AL - Jeffer… Heal… Over… How is … Fair             107       12.5
    ##  5  2010 AL    AL - Jeffer… Heal… Over… How is … Poor              45        5.5
    ##  6  2010 AL    AL - Mobile… Heal… Over… How is … Excelle…          91       15.6
    ##  7  2010 AL    AL - Mobile… Heal… Over… How is … Very go…         177       31.3
    ##  8  2010 AL    AL - Mobile… Heal… Over… How is … Good             224       31.2
    ##  9  2010 AL    AL - Mobile… Heal… Over… How is … Fair             120       15.5
    ## 10  2010 AL    AL - Mobile… Heal… Over… How is … Poor              66        6.4
    ## # ℹ 10,615 more rows
    ## # ℹ 14 more variables: Confidence_limit_Low <dbl>, Confidence_limit_High <dbl>,
    ## #   Display_order <int>, Data_value_unit <chr>, Data_value_type <chr>,
    ## #   Data_Value_Footnote_Symbol <chr>, Data_Value_Footnote <chr>,
    ## #   DataSource <chr>, ClassId <chr>, TopicId <chr>, LocationID <chr>,
    ## #   QuestionID <chr>, RESPID <chr>, GeoLocation <chr>
…
